{
  "photos": {
    "page": 1,
    "pages": 15956,
    "perpage": 15,
    "total": "239336",
    "photo": [
      {
        "id": "51097434367",
        "owner": "154604424@N03",
        "secret": "e57412e68c",
        "server": "65535",
        "farm": 66,
        "title": "DSC_4891",
        "ispublic": 1,
        "isfriend": 0,
        "isfamily": 0
      },
      {
        "id": "51097337091",
        "owner": "154604424@N03",
        "secret": "1093fb0e02",
        "server": "65535",
        "farm": 66,
        "title": "DSC_4958",
        "ispublic": 1,
        "isfriend": 0,
        "isfamily": 0
      },
      {
        "id": "51098125970",
        "owner": "127607275@N06",
        "secret": "0bbceb14a5",
        "server": "65535",
        "farm": 66,
        "title": "Pipevine swallowtail and the monarch cat",
        "ispublic": 1,
        "isfriend": 0,
        "isfamily": 0
      },
      {
        "id": "51097859778",
        "owner": "87242456@N02",
        "secret": "d15db5ae8f",
        "server": "65535",
        "farm": 66,
        "title": "Spotty,not my cat",
        "ispublic": 1,
        "isfriend": 0,
        "isfamily": 0
      },
      {
        "id": "51098030585",
        "owner": "28183637@N08",
        "secret": "a51479a502",
        "server": "65535",
        "farm": 66,
        "title": "Sagebrush and Blackooth",
        "ispublic": 1,
        "isfriend": 0,
        "isfamily": 0
      },
      {
        "id": "51097766648",
        "owner": "28183637@N08",
        "secret": "352f6e7682",
        "server": "65535",
        "farm": 66,
        "title": "Petrified Stump",
        "ispublic": 1,
        "isfriend": 0,
        "isfamily": 0
      },
      {
        "id": "51097321087",
        "owner": "28183637@N08",
        "secret": "ab6f2c008e",
        "server": "65535",
        "farm": 66,
        "title": "Crumbling Overhang",
        "ispublic": 1,
        "isfriend": 0,
        "isfamily": 0
      },
      {
        "id": "51097320987",
        "owner": "28183637@N08",
        "secret": "59c2b58c38",
        "server": "65535",
        "farm": 66,
        "title": "Last of the Snow",
        "ispublic": 1,
        "isfriend": 0,
        "isfamily": 0
      },
      {
        "id": "51098030065",
        "owner": "28183637@N08",
        "secret": "26b5e8335a",
        "server": "65535",
        "farm": 66,
        "title": "Hole In the Boulder",
        "ispublic": 1,
        "isfriend": 0,
        "isfamily": 0
      },
      {
        "id": "51097309506",
        "owner": "134738530@N07",
        "secret": "a97565be09",
        "server": "65535",
        "farm": 66,
        "title": "BUDDY    MALE 5 YRS",
        "ispublic": 1,
        "isfriend": 0,
        "isfamily": 0
      },
      {
        "id": "51097397982",
        "owner": "190663875@N04",
        "secret": "3497b5936e",
        "server": "65535",
        "farm": 66,
        "title": "Cat in Daisy Field",
        "ispublic": 1,
        "isfriend": 0,
        "isfamily": 0
      },
      {
        "id": "51097301376",
        "owner": "190663875@N04",
        "secret": "e7a82e45a1",
        "server": "65535",
        "farm": 66,
        "title": "Cat in Patio Chair",
        "ispublic": 1,
        "isfriend": 0,
        "isfamily": 0
      },
      {
        "id": "51097301316",
        "owner": "190663875@N04",
        "secret": "0506514261",
        "server": "65535",
        "farm": 66,
        "title": "Cat on Sofa, Hearts",
        "ispublic": 1,
        "isfriend": 0,
        "isfamily": 0
      },
      {
        "id": "51098106530",
        "owner": "190663875@N04",
        "secret": "3d78ec79aa",
        "server": "65535",
        "farm": 66,
        "title": "Cats and Snail Shell",
        "ispublic": 1,
        "isfriend": 0,
        "isfamily": 0
      },
      {
        "id": "51098106385",
        "owner": "190663875@N04",
        "secret": "719d381eb1",
        "server": "65535",
        "farm": 66,
        "title": "Amber Eyes, Cat",
        "ispublic": 1,
        "isfriend": 0,
        "isfamily": 0
      }
    ]
  },
  "stat": "ok"
}
